RISCV_v5.sim/program/behav/xsim/simulate.log
Time resolution is 1 ps
D2:    0, D3:    0, D7:    0
D2:    0, D3:  500, D7:    0
D2:   25, D3:  500, D7:    0
D2:   25, D3:  475, D7:    0
D2:   25, D3:  475, D7:    1
D2:   25, D3:  450, D7:    1
D2:   25, D3:  450, D7:    2
D2:   25, D3:  425, D7:    2
D2:   25, D3:  425, D7:    3
D2:   25, D3:  400, D7:    3
D2:   25, D3:  400, D7:    4
D2:   25, D3:  375, D7:    4
D2:   25, D3:  375, D7:    5
D2:   25, D3:  350, D7:    5
D2:   25, D3:  350, D7:    6
D2:   25, D3:  325, D7:    6
D2:   25, D3:  325, D7:    7
D2:    0, D3:    0, D7:    0
D2:    0, D3:  500, D7:    0
D2:   25, D3:  500, D7:    0
D2:   25, D3:  475, D7:    0
D2:   25, D3:  475, D7:    1
D2:   25, D3:  450, D7:    1
D2:   25, D3:  450, D7:    2
D2:   25, D3:  425, D7:    2
D2:   25, D3:  425, D7:    3
D2:   25, D3:  400, D7:    3
D2:   25, D3:  400, D7:    4
D2:   25, D3:  375, D7:    4
D2:   25, D3:  375, D7:    5
D2:   25, D3:  350, D7:    5
D2:   25, D3:  350, D7:    6
D2:   25, D3:  325, D7:    6
D2:   25, D3:  325, D7:    7
D2:   25, D3:  300, D7:    7
D2:   25, D3:  300, D7:    8
D2:   25, D3:  275, D7:    8
D2:   25, D3:  275, D7:    9
D2:   25, D3:  250, D7:    9
D2:   25, D3:  250, D7:   10
D2:   25, D3:  225, D7:   10
D2:   25, D3:  225, D7:   11
D2:   25, D3:  200, D7:   11
D2:   25, D3:  200, D7:   12
D2:   25, D3:  175, D7:   12
D2:   25, D3:  175, D7:   13
D2:   25, D3:  150, D7:   13
D2:   25, D3:  150, D7:   14
D2:   25, D3:  125, D7:   14
D2:   25, D3:  125, D7:   15
D2:   25, D3:  100, D7:   15
D2:   25, D3:  100, D7:   16
D2:   25, D3:   75, D7:   16
D2:   25, D3:   75, D7:   17
D2:   25, D3:   50, D7:   17
D2:   25, D3:   50, D7:   18
D2:   25, D3:   25, D7:   18
D2:   25, D3:   25, D7:   19
D2:   25, D3:    0, D7:   19
D2:   25, D3:    0, D7:   20
Division Test case passed
op1:  500, op2:   25
result:   20
$finish called at time : 2568 ns : File "D:/Code/RISCV/RTL/4-stage-rv32i/RISCV_v5.srcs/program/new/program_tb.v" Line 141
