RISCV_v5.sim/program/behav/xsim/simulate.log
Time resolution is 1 ps
D2:    0, D3:    0, D7:    0
D2:    0, D3:  500, D7:    0
D2:   25, D3:  500, D7:    0
D2:   25, D3:  475, D7:    0
D2:   25, D3:  475, D7:    1
D2:   25, D3:  450, D7:    1
D2:   25, D3:  450, D7:    2
D2:   25, D3:  425, D7:    2
D2:   25, D3:  425, D7:    3
D2:   25, D3:  400, D7:    3
D2:   25, D3:  400, D7:    4
D2:   25, D3:  375, D7:    4
D2:   25, D3:  375, D7:    5
D2:   25, D3:  350, D7:    5
D2:   25, D3:  350, D7:    6
D2:   25, D3:  325, D7:    6
D2:   25, D3:  325, D7:    7
D2:   25, D3:  300, D7:    7
D2:   25, D3:  300, D7:    8
D2:   25, D3:  275, D7:    8
D2:   25, D3:  275, D7:    9
